Curso de Estadística - venenos
…
Para poner a prueba la diferencia entre niveles sigo el camino de recodificar los niveles del factor antidoto. Para hacerlo uso la función {r}ecode_factor() de la biblioteca dplyr

venenos$CvsOtros <-recode_factor(venenos$antidoto, "b"="a", "d"="a")
venenos$CAvsOtros <-recode_factor(venenos$antidoto, "c"="a")
venenos

# A tibble: 48 × 5
   veneno antidoto   tsv CvsOtros CAvsOtros
   <fct>  <fct>    <dbl> <fct>    <fct>    
 1 I      a         0.31 a        a        
 2 I      b         0.82 a        b        
 3 I      c         0.43 c        a        
 4 I      d         0.45 a        d        
 5 I      a         0.45 a        a        
 6 I      b         1.1  a        b        
 7 I      c         0.45 c        a        
 8 I      d         0.71 a        d        
 9 I      a         0.46 a        a        
10 I      b         0.88 a        b        
# … with 38 more rows
…
